<?xml version="1.0" encoding="utf-8"?>
<!-- Generator: Adobe Illustrator 21.0.1, SVG Export Plug-In . SVG Version: 6.00 Build 0)  -->
<svg version="1.1" id="Layer_1" xmlns="http://www.w3.org/2000/svg" xmlns:xlink="http://www.w3.org/1999/xlink" x="0px" y="0px"
	 viewBox="0 0 76.6 76.6" style="enable-background:new 0 0 76.6 76.6;" xml:space="preserve">
<style type="text/css">
	.st0{fill:#876E00;}
	.st1{font-family:'ArialMT';}
	.st2{font-size:10px;}
</style>
<text transform="matrix(1 0 0 1 54.3424 47.6743)" class="st0 st1 st2">$</text>
<g>
	<path class="st0" d="M19.3,44.6c1.6,0,2.9-1.3,2.9-2.9s-1.3-2.9-2.9-2.9s-2.9,1.3-2.9,2.9S17.7,44.6,19.3,44.6z M19.3,40.3
		c0.8,0,1.4,0.6,1.4,1.4s-0.6,1.4-1.4,1.4s-1.4-0.6-1.4-1.4S18.5,40.3,19.3,40.3z"/>
	<path class="st0" d="M67.5,34.5l-8.9-15h3.2c1.6,0,2.9-1.3,2.9-2.9c0-1.5-1.2-2.7-2.7-2.8L38.3,3.9l-23.8,9.9
		c-1.5,0.1-2.7,1.3-2.7,2.8c0,1.6,1.3,2.9,2.9,2.9h3.2L9,34.5H6.4v12.7v1.5v0.9c0,2.1,1.7,3.8,3.8,3.8h18c2.1,0,3.8-1.7,3.8-3.8
		v-0.9v-1.5V34.5h-2.6l-8.9-15h13.8c0.2,0.3,0.5,0.6,0.7,0.8v36.4h-2.2c-1.6,0-2.9,1.3-2.9,2.9v1.6h-5.6c-1.6,0-2.9,1.3-2.9,2.9v3.1
		h33.8v-3.1c0-1.6-1.3-2.9-2.9-2.9h-5.7v-1.6c0-1.6-1.3-2.9-2.9-2.9h-2.2V20.3c0.3-0.2,0.5-0.5,0.7-0.8h13.7l-8.9,15h-2.6v19.2H70
		V34.5H67.5z M63.2,16.6c0,0.7-0.6,1.4-1.4,1.4H42.9c0.1-0.4,0.2-0.9,0.2-1.4s-0.1-0.9-0.2-1.4l0,0h18.9
		C62.6,15.3,63.2,15.9,63.2,16.6z M13.4,16.6c0-0.7,0.6-1.4,1.4-1.4h18.9l0,0c-0.1,0.4-0.2,0.9-0.2,1.4s0.1,0.9,0.2,1.4H14.8
		C14,18,13.4,17.4,13.4,16.6z M30.6,49.5c0,1.3-1,2.3-2.3,2.3h-18c-1.3,0-2.3-1-2.3-2.3v-0.9h22.6V49.5z M30.6,47.1H8V35.9h22.6
		V47.1z M10.8,34.5l8.5-14.3l8.5,14.2L10.8,34.5L10.8,34.5z M33.9,18.8L33.9,18.8L33.9,18.8z M33.9,14.5L33.9,14.5L33.9,14.5z
		 M52.3,62.7c0.8,0,1.4,0.6,1.4,1.4v1.6H22.9v-1.6c0-0.8,0.6-1.4,1.4-1.4H30h16.6H52.3z M43.7,58.2c0.8,0,1.4,0.6,1.4,1.4v1.6H31.5
		v-1.6c0-0.8,0.6-1.4,1.4-1.4h2.2h6.4H43.7z M36.6,56.7V21.2c0.5,0.2,1.1,0.3,1.7,0.3c0.6,0,1.2-0.1,1.7-0.3v35.5H36.6z M35.8,20.8
		L35.8,20.8L35.8,20.8z M40.7,20.8L40.7,20.8L40.7,20.8z M38.3,20.1c-1.9,0-3.4-1.5-3.4-3.4s1.5-3.4,3.4-3.4s3.4,1.5,3.4,3.4
		C41.7,18.5,40.2,20.1,38.3,20.1z M38.3,11.8c-1.6,0-3,0.8-3.9,2l0,0H18.5l19.8-8.3l19.8,8.3H42.2C41.3,12.6,39.9,11.8,38.3,11.8z
		 M42.6,14.5L42.6,14.5L42.6,14.5z M42.6,18.8L42.6,18.8L42.6,18.8z M57.3,20.2l8.5,14.2h-17L57.3,20.2z M68.6,52.1H46V35.9h22.6
		V52.1z"/>
	<path class="st0" d="M38.3,0C17.2,0,0,17.2,0,38.3s17.2,38.3,38.3,38.3s38.3-17.2,38.3-38.3C76.6,17.1,59.4,0,38.3,0z M38.3,75
		C18,75,1.5,58.5,1.5,38.2S18,1.4,38.3,1.4s36.8,16.5,36.8,36.8C75.1,58.5,58.6,75,38.3,75z"/>
</g>
</svg>
